%YAML 1.1
%TAG !u! tag:unity3d.com,2011:
--- !u!687078895 &4343727234628468602
SpriteAtlas:
  m_ObjectHideFlags: 0
  m_PrefabParentObject: {fileID: 0}
  m_PrefabInternal: {fileID: 0}
  m_Name: 2
  m_EditorData:
    textureSettings:
      serializedVersion: 2
      anisoLevel: 1
      compressionQuality: 50
      maxTextureSize: 2048
      textureCompression: 1
      filterMode: 1
      generateMipMaps: 0
      readable: 0
      crunchedCompression: 1
      sRGB: 0
    platformSettings: []
    packingParameters:
      serializedVersion: 2
      padding: 4
      blockOffset: 1
      allowAlphaSplitting: 0
      enableRotation: 1
      enableTightPacking: 1
    variantMultiplier: 1
    packables:
    - {fileID: 102900000, guid: b6175a75b000b4779abf0a3c3dbd9c11, type: 3}
    bindAsDefault: 1
  m_MasterAtlas: {fileID: 0}
  m_PackedSprites:
  - {fileID: 21300000, guid: 43c394d7a2e194e938db36fdab4ad9e6, type: 3}
  - {fileID: 21300000, guid: c76cfa6a9d1484f47bc0eeaa95253689, type: 3}
  m_PackedSpriteNamesToIndex:
  - background_02_bottom
  - background_02_tile
  m_Tag: 2
  m_IsVariant: 0
