%YAML 1.1
%TAG !u! tag:unity3d.com,2011:
--- !u!687078895 &4343727234628468602
SpriteAtlas:
  m_ObjectHideFlags: 0
  m_PrefabParentObject: {fileID: 0}
  m_PrefabInternal: {fileID: 0}
  m_Name: 6
  m_EditorData:
    textureSettings:
      serializedVersion: 2
      anisoLevel: 1
      compressionQuality: 50
      maxTextureSize: 2048
      textureCompression: 1
      filterMode: 1
      generateMipMaps: 0
      readable: 0
      crunchedCompression: 1
      sRGB: 0
    platformSettings: []
    packingParameters:
      serializedVersion: 2
      padding: 4
      blockOffset: 1
      allowAlphaSplitting: 0
      enableRotation: 1
      enableTightPacking: 1
    variantMultiplier: 1
    packables:
    - {fileID: 102900000, guid: 13fc395a6c20e4c33b633e297ee8e483, type: 3}
    bindAsDefault: 1
  m_MasterAtlas: {fileID: 0}
  m_PackedSprites:
  - {fileID: 21300000, guid: d3b595385f64541d5bd6e9ddabf6ebfe, type: 3}
  - {fileID: 21300000, guid: 600d478f84bc34d9ab3fe9006b0f8384, type: 3}
  m_PackedSpriteNamesToIndex:
  - background_06_tile
  - background_06_bottom
  m_Tag: 6
  m_IsVariant: 0
