%YAML 1.1
%TAG !u! tag:unity3d.com,2011:
--- !u!114 &11400000
MonoBehaviour:
  m_ObjectHideFlags: 0
  m_PrefabParentObject: {fileID: 0}
  m_PrefabInternal: {fileID: 0}
  m_GameObject: {fileID: 0}
  m_Enabled: 1
  m_EditorHideFlags: 0
  m_Script: {fileID: 11500000, guid: 4e67482cce9d640bba73adac2b6d0367, type: 3}
  m_Name: AdsConfig
  m_EditorClassIdentifier: 
  isRemote: 0
  configID: AdsConfig
  unity:
    androidAppID: 1681184
    iOSAppID: 1681185
    placements: []
  vungle:
    androidAppID: 5ab3ac9c69e58f7fca39b2c0
    iOSAppID: 5ab3abf7ed14447fac652718
    placements:
    - placement: 3
      androidID: DEATH-3860074
      iOSID: DEATH-3300861
    - placement: 4
      androidID: START-8779700
      iOSID: START-8884502
    - placement: 0
      androidID: 'REWARDED-8568676 '
      iOSID: REWARDED-2613425
    - placement: 1
      androidID: CURRENCY-2882204
      iOSID: CURRENCY-4368331
  moPub:
    androidAppID: 0e4b61000462481c89dd492ec5b3471b
    iOSAppID: 912d47d280424d06a25d11ac3872f49b
    placements:
    - placement: 5
      androidID: 0e4b61000462481c89dd492ec5b3471b
      iOSID: 912d47d280424d06a25d11ac3872f49b
    - placement: 4
      androidID: 9fed3b785aac43c4944696b28de9daf7
      iOSID: 4643b8e3152c41e380c64280255fc2e1
    - placement: 2
      androidID: 9b358efeff924d66af51db4ec7129c21
      iOSID: 4c5227bc43714a30a1bf0fcf74deec74
