%YAML 1.1
%TAG !u! tag:unity3d.com,2011:
--- !u!114 &11400000
MonoBehaviour:
  m_ObjectHideFlags: 0
  m_PrefabParentObject: {fileID: 0}
  m_PrefabInternal: {fileID: 0}
  m_GameObject: {fileID: 0}
  m_Enabled: 1
  m_EditorHideFlags: 0
  m_Script: {fileID: 11500000, guid: b5b87d850651427393c19c74a2027e41, type: 3}
  m_Name: BasketBox_hor_left_15_30_45
  m_EditorClassIdentifier: 
  isLocked: 1
  basketsList:
  - basket: {fileID: 114993501972697148, guid: dfa00d07a005d46c2970011cd79c473a, type: 2}
    yOffset: 0
    xPosition: 0
    randomize: 1
