%YAML 1.1
%TAG !u! tag:unity3d.com,2011:
--- !u!114 &11400000
MonoBehaviour:
  m_ObjectHideFlags: 0
  m_PrefabParentObject: {fileID: 0}
  m_PrefabInternal: {fileID: 0}
  m_GameObject: {fileID: 0}
  m_Enabled: 1
  m_EditorHideFlags: 0
  m_Script: {fileID: 11500000, guid: b5b87d850651427393c19c74a2027e41, type: 3}
  m_Name: BasketBox_square
  m_EditorClassIdentifier: 
  isLocked: 1
  basketsList:
  - basket: {fileID: 114076502709778514, guid: aa1f0984493d04bd2972f2b35f89308f, type: 2}
    yOffset: 0
    xPosition: 0
    randomize: 1
