%YAML 1.1
%TAG !u! tag:unity3d.com,2011:
--- !u!114 &11400000
MonoBehaviour:
  m_ObjectHideFlags: 0
  m_PrefabParentObject: {fileID: 0}
  m_PrefabInternal: {fileID: 0}
  m_GameObject: {fileID: 0}
  m_Enabled: 1
  m_EditorHideFlags: 0
  m_Script: {fileID: 11500000, guid: b5b87d850651427393c19c74a2027e41, type: 3}
  m_Name: Preset_dash_left
  m_EditorClassIdentifier: 
  isLocked: 1
  basketsList:
  - basket: {fileID: 114799212418356898, guid: 107069013b6a54fc583920db262679c8, type: 2}
    yOffset: 0
    xPosition: -10
    randomize: 0
    coinPath: []
  - basket: {fileID: 114897404958401042, guid: cb15da535923b41cbadcc5c70a1bb616, type: 2}
    yOffset: 21
    xPosition: -20
    randomize: 0
    coinPath:
    - localPosition: {x: 10.1, y: 34, z: 0}
    - localPosition: {x: 10.1, y: 24, z: 0}
    - localPosition: {x: 10.1, y: 14, z: 0}
