%YAML 1.1
%TAG !u! tag:unity3d.com,2011:
--- !u!114 &11400000
MonoBehaviour:
  m_ObjectHideFlags: 0
  m_PrefabParentObject: {fileID: 0}
  m_PrefabInternal: {fileID: 0}
  m_GameObject: {fileID: 0}
  m_Enabled: 1
  m_EditorHideFlags: 0
  m_Script: {fileID: 11500000, guid: b5b87d850651427393c19c74a2027e41, type: 3}
  m_Name: Preset_bounce_right
  m_EditorClassIdentifier: 
  isLocked: 1
  basketsList:
  - basket: {fileID: 114799212418356898, guid: 1c9e36ddfdb0d4dfeaef67d59778e4dc, type: 2}
    yOffset: 0
    xPosition: 15.2
    randomize: 0
  - basket: {fileID: 114695107393855588, guid: 0e661197476214ec9ac327d70b0389b1, type: 2}
    yOffset: 31.392666
    xPosition: 21
    randomize: 0
