{
  "project_info": {
    "project_number": "186694860911",
    "firebase_url": "https://kitty-jump-4fb5c.firebaseio.com",
    "project_id": "kitty-jump-4fb5c",
    "storage_bucket": "kitty-jump-4fb5c.appspot.com"
  },
  "client": [
    {
      "client_info": {
        "mobilesdk_app_id": "1:186694860911:android:091462c1ab155e44",
        "android_client_info": {
          "package_name": "com.huuugetaptapgames.kittyjump"
        }
      },
      "oauth_client": [
        {
          "client_id": "186694860911-gv0jvj5hej94a1f32uj8m3hokb3c2ese.apps.googleusercontent.com",
          "client_type": 3
        },
        {
          "client_id": "186694860911-gv0jvj5hej94a1f32uj8m3hokb3c2ese.apps.googleusercontent.com",
          "client_type": 3
        }
      ],
      "api_key": [
        {
          "current_key": "AIzaSyAGuvWbqBQ-VNtubS1gI60-q96iSEIqUFo"
        }
      ],
      "services": {
        "analytics_service": {
          "status": 1
        },
        "appinvite_service": {
          "status": 1,
          "other_platform_oauth_client": []
        },
        "ads_service": {
          "status": 2
        }
      }
    }
  ],
  "configuration_version": "1"
}